routine power(a : integer) is
        if a % 10 = 5 then
                var b is a / 10
                b := b * (b + 1)
                b := b * 100 + 25
        else
                var b is 0                
        end
end
